{
  "type": "service_account",
  "project_id": "movieroolette",
  "private_key_id": "b2dca2f111c9f43dae1a8ce9a70b3e6a14dbff06",
  "private_key": "-----BEGIN PRIVATE KEY-----\nMIIEvQIBADANBgkqhkiG9w0BAQEFAASCBKcwggSjAgEAAoIBAQDIIkKO/3uuIPIm\nUOkxBL4dqthqJ83TMVWP/1YevgBK31PyaA9BmoBfXzhMPqCsKIlZ7OEFhT/whL/1\nCvdMrr0BIDPMkROgbcXY516FFG6MSghzilnFsADzar3KhpNk+1EI3iVRaide3LaU\n0bar3mb4rBhzja8XT+h4gJSGsCvMWkh0oi6obh5WsNecCEYG7Rt71KKbPsl7w1X3\nJLSvvNAKff35hR+KKm/B0mF6x7p3WFia5l7J9HYKj0LiPOnI1q+NNnTT7tglmzIw\n3sr0l+KrlO5QHF9KOsyYBF2hGCSCBuDYkth7fT3VivzIGqH9cN0h7g/CR/KYZcS/\noBMouB7BAgMBAAECggEAG2hNsyWbu3H5l3O3K6ZZnth5wLfowQZdkFXIZndgtOA2\nr9i+Vh6he+4fWJmvCUSX4r/E5SulYPvdCeLRkSfQ7GmLjnVDudGuqZCt6g2tQfsV\ngzUsLB15U9yHV0fswYSFSXCarbaa46vYOTMrEAhqE54FzzVVCB1CWdZKANP5e4eX\nZSWFhb0N2i4XM4rzVtognTZUnioBzMfSz9TWW+9snA+hK724bMTXLByvaIG/xs59\nIJqGSjGtnugdORwX5mBsU1tUZreYO6PUc8bkMDqyMag8Ca3H8yxbQt0NKG+Kb/U1\nsy6YmqJolKt+F1zBu3vqRs9FS/W7h4kBET6gWp2Z7QKBgQD4tBKF3/satMDD4Lfo\ndVA4hlrSNyw+AbY3ZVZjOXTnxMfvyJ7fKNPiHAYo5ivihn4mA4tmiNQ21gzq3aHC\nBvRRjbbDMFqt4UiMM+2PYE6F3cFzwvEtKwapGCo5IxPeQ8zbX7j2ggSqo97C9uA8\nsYHaavhFTz8AhVoRiiAfA/pH8wKBgQDOAWXaYNW3wL64YX0Qwpprk96QgyU6lvTb\nfeC9M9Ovsi4MRPRk/Zyb8HoO2Ep8ZHrQ+wbp26O/D2D+9e+Vyc37MsQD18b3miYX\nfrcaO0vGY3pD7lqkKS2fdQETpj5heA3gYU+FPMlZD3/SQIDYslCuuGYzGJ0ynafS\nSu4JuqJ/ewKBgGVgMXS0mgyGxVSS0yREPZDs4zRxHO2hkP7/pbkIgKjAw6bwJiJc\n6BFwzun4+MZ7gAxKwZXoDGjV06og8YC/iPN9SpRBr5TVEddki184KInUnLhtLBX3\nRd3DZeKoc77T8Dszx5dj5DcSWQkrzLewu3emxtCpvsqdkNs5bGJ4IpsVAoGAb8cC\nZQO18wZ6dcEwAzAUadrKIM+IG8pdAdvDXeYJLoQXyECB+2pA17wb/oINqIE8wrfy\ngGHU746Aqtb3MOdXBL3+7bbfFuplUMpIv8r8yqCfbsyeEgTl5GewNeE2Z9ykauNi\nKoFZHyHx0Tt+rhXTAXq8uWzZnuU8cjaGAnFqSpECgYEA7ZSwmQ08NFJm/5oH2l0V\ne+uVpQ/fLOqcTwKYyA2to3fd3GQpLUdQWDw0GFlEM7UJQsjJ0nFwdAKSCp4eO/BZ\nLZq7ckhalUkvTSyHXMVoJctbxoLqNuge0jcK35oKvm1PF2hjd8a6rWPq7RuNT23z\npUsGrcWC8LGmdF7SmCMQg8Y=\n-----END PRIVATE KEY-----\n",
  "client_email": "firebase-adminsdk-w0fb7@movieroolette.iam.gserviceaccount.com",
  "client_id": "104701101316078358077",
  "auth_uri": "https://accounts.google.com/o/oauth2/auth",
  "token_uri": "https://oauth2.googleapis.com/token",
  "auth_provider_x509_cert_url": "https://www.googleapis.com/oauth2/v1/certs",
  "client_x509_cert_url": "https://www.googleapis.com/robot/v1/metadata/x509/firebase-adminsdk-w0fb7%40movieroolette.iam.gserviceaccount.com"
}
